<?xml version="1.0" encoding="utf-8"?>
<!-- Generator: Adobe Illustrator 15.0.2, SVG Export Plug-In . SVG Version: 6.00 Build 0)  -->
<!DOCTYPE svg PUBLIC "-//W3C//DTD SVG 1.1//EN" "http://www.w3.org/Graphics/SVG/1.1/DTD/svg11.dtd">
<svg version="1.1" id="Layer_1" xmlns="http://www.w3.org/2000/svg" xmlns:xlink="http://www.w3.org/1999/xlink" x="0px" y="0px"
	 width="16px" height="32px" viewBox="0 0 16 32" enable-background="new 0 0 16 32" xml:space="preserve">
<g transform="translate(0, 0)">
	<path fill="#999999" d="M12.7,11.3C13.6,10.1,14.1,8.7,14.1,7.1c0-3.9-3.1-7.1-7-7.1S0,3.2,0,7.1s3.2,7.1,7.1,7.1
		c1.6,0,3.1-0.5,4.2-1.4l3,3c0.2,0.2,0.5,0.3,0.7,0.3s0.5-0.1,0.7-0.3c0.399-0.4,0.399-1,0-1.4L12.7,11.3z M7.1,12.1
		c-2.8,0-5.1-2.2-5.1-5C2,4.3,4.3,2,7.1,2s5.1,2.3,5.1,5.1C12.2,9.9,9.9,12.1,7.1,12.1z"/>
</g>
<g transform="translate(0, 16)">
	<path fill="#FFFFFF" d="M12.7,11.3C13.6,10.1,14.1,8.7,14.1,7.1C14.1,3.2,11,0,7.1,0S0,3.2,0,7.1C0,11,3.2,14.2,7.1,14.2
		c1.6,0,3.1-0.5,4.2-1.4l3,3c0.2,0.2,0.5,0.3,0.7,0.3s0.5-0.1,0.7-0.3c0.399-0.399,0.399-1,0-1.399L12.7,11.3z M7.1,12.1
		C4.3,12.1,2,9.9,2,7.1C2,4.3,4.3,2,7.1,2s5.1,2.3,5.1,5.1C12.2,9.9,9.9,12.1,7.1,12.1z"/>
</g>
</svg>
